{ 
    
    "JarOpen": [
        
        {
            "density": 2, "friction": 0, "bounce": 0, 
            "filter": { "categoryBits": 1, "maskBits": 65535 },
            "shape": [   220, 310  ,  20, 310  ,  20, 300  ,  220, 300  ]
        } ,
        {
            "density": 2, "friction": 0, "bounce": 0, 
            "filter": { "categoryBits": 1, "maskBits": 65535 },
            "shape": [   210, 70  ,  195, 145  ,  196, 35  ,  210, 40  ]
        } ,
        {
            "density": 2, "friction": 0, "bounce": 0, 
            "filter": { "categoryBits": 1, "maskBits": 65535 },
            "shape": [   43, 34  ,  44, 147  ,  30, 70  ,  30, 40  ]
        } ,
        {
            "density": 2, "friction": 0, "bounce": 0, 
            "filter": { "categoryBits": 1, "maskBits": 65535 },
            "shape": [   220, 70  ,  220, 280  ,  195, 145  ,  210, 70  ]
        } ,
        {
            "density": 2, "friction": 0, "bounce": 0, 
            "filter": { "categoryBits": 1, "maskBits": 65535 },
            "shape": [   220, 280  ,  200, 290  ,  40, 290  ,  20, 280  ,  44, 147  ,  195, 145  ]
        } ,
        {
            "density": 2, "friction": 0, "bounce": 0, 
            "filter": { "categoryBits": 1, "maskBits": 65535 },
            "shape": [   44, 147  ,  20, 280  ,  20, 70  ,  30, 70  ]
        } ,
        {
            "density": 2, "friction": 0, "bounce": 0, 
            "filter": { "categoryBits": 1, "maskBits": 65535 },
            "shape": [   40, 300  ,  40, 290  ,  200, 290  ,  200, 300  ]
        }
    ]
}
